Mini Learning Analytics Assignment - Network Analysis
…
## Warning: 3470 parsing failures.
##  row      col           expected                     actual                    file
## 2055 parentId 1/0/T/F/TRUE/FALSE UgxaXyXtLMJnjYDWty14AaABAg 'comments_YT_Nov20.csv'
## 2056 parentId 1/0/T/F/TRUE/FALSE UgxaXyXtLMJnjYDWty14AaABAg 'comments_YT_Nov20.csv'
## 2057 parentId 1/0/T/F/TRUE/FALSE UgxaXyXtLMJnjYDWty14AaABAg 'comments_YT_Nov20.csv'
## 2058 parentId 1/0/T/F/TRUE/FALSE UgxaXyXtLMJnjYDWty14AaABAg 'comments_YT_Nov20.csv'
## 2059 parentId 1/0/T/F/TRUE/FALSE UgxsXSjZ54PrCjQJx-h4AaABAg 'comments_YT_Nov20.csv'
## .... ........ .................. .......................... .......................
## See problems(...) for more details.

# counting occurence of words
comments_YT_Nov20 %>%
  count(word, sort = TRUE)

## # A tibble: 6,104 x 2
##    word          n
##    <chr>     <int>
##  1 bolsonaro   502
##  2 povo        237
##  3 abenoe     186
##  4 sempre      123
##  5 2022         74
##  6 jesus        73
##  7 eleies     68
##  8 ajudar       66
##  9 trump        62
## 10 nunca        55
## #  with 6,094 more rows
…
